[gd_resource type="Resource" script_class="FruitResource" load_steps=2 format=3 uid="uid://ddylflhl0g4oy"]

[ext_resource type="Script" path="res://Resource/fruit/fruit_resource.gd" id="1_a3o5o"]

[resource]
script = ExtResource("1_a3o5o")
tier = 4
diameter = 24
sprite_path = "res://Sprite/fruit04.png"
collision_radius = 10
